{
	"info": {
		"_postman_id": "896e2f4e-265e-408b-b452-b3c99ce687fc",
		"name": "SideProtocol",
		"schema": "https://schema.getpostman.com/json/collection/v2.1.0/collection.json",
		"_exporter_id": "1908648"
	},
	"item": [
		{
			"name": "Search Movies",
			"request": {
				"method": "GET",
				"header": [],
				"url": {
					"raw": "localhost:9090/movie/search?search_text=batman&page=2",
					"host": [
						"localhost"
					],
					"port": "9090",
					"path": [
						"movie",
						"search"
					],
					"query": [
						{
							"key": "search_text",
							"value": "batman"
						},
						{
							"key": "page",
							"value": "2"
						}
					]
				}
			},
			"response": []
		},
		{
			"name": "Get MovieByID",
			"request": {
				"method": "GET",
				"header": [],
				"url": {
					"raw": "localhost:9090/movie/search?search_text=batman&page=2",
					"host": [
						"localhost"
					],
					"port": "9090",
					"path": [
						"movie",
						"search"
					],
					"query": [
						{
							"key": "search_text",
							"value": "batman"
						},
						{
							"key": "page",
							"value": "2"
						}
					]
				}
			},
			"response": []
		}
	]
}